"Resource/UI/HudAmmoWeapons.res"
{
	"HudWeaponAmmoBG"
	{
		"ControlName"	"CTFImagePanel"
		"fieldName"		"HudWeaponAmmoBG"
		"xpos"			"4"
		"xpos_minmode"	"28"
		"ypos"			"0"
		"ypos_minmode"	"7"
		"zpos"			"1"
		"wide"			"90"
		"tall"			"45"
		"visible"		"0"
		"enabled"		"0"
		"image"			"../hud/ammo_blue_bg"
		"scaleImage"	"1"	
		"teambg_2"		"../hud/ammo_red_bg"
		"teambg_2_lodef"	"../hud/ammo_red_bg_lodef"
		"teambg_3"		"../hud/ammo_blue_bg"
		"teambg_3_lodef"	"../hud/ammo_blue_bg_lodef"			
	}
	"HudWeaponLowAmmoImage"
	{
		"ControlName"	"ImagePanel"
		"fieldName"		"HudWeaponLowAmmoImage"
		"xpos"			"2000"
		"xpos_minmode"	"28"
		"ypos"			"0"
		"ypos_minmode"	"7"
		"zpos"			"0"
		"wide"			"90"
		"tall"			"45"
		"visible"		"0"
		"enabled"		"0"
		"image"			"../hud/ammo_red_bg"
		"scaleImage"	"1"	
		"teambg_2"		"../hud/ammo_red_bg"
		"teambg_2_lodef"	"../hud/ammo_red_bg_lodef"
		"teambg_3"		"../hud/ammo_blue_bg"
		"teambg_3_lodef"	"../hud/ammo_blue_bg_lodef"			
	}
	"AmmoInClip"
	{
		"ControlName"	"CExLabel"
		"fieldName"		"AmmoInClip"
		"font"			"Heavy48"
		"fgcolor"		"Ammo"
		"xpos"			"c38"
		"xpos_minmode"	"8"
		"ypos"			"325"
		"ypos_minmode"	"2"
		"zpos"			"5"
		"wide"			"159"
		"tall"			"57"
		"tall_minmode"	"38"
		"visible"		"0"
		"enabled"		"1"
		"textAlignment"	"center"	
		"labelText"		"%Ammo%"
		"autoResize"	"1"
		"pinCorner"		"2"
		
	}		
	"AmmoInClipShadow"
	{
		"ControlName"	"CExLabel"
		"fieldName"		"AmmoInClipShadow"
		"font"			"Heavy48"
		"fgcolor"		"HudShadow"
		"xpos"			"c39"
		"xpos_minmode"	"9"
		"xpos_hidef"	"2"
		"ypos"			"327"
		"ypos_minmode"	"2"
		"ypos_hidef"	"2"
		"ypos_lodef"	"2"
		"zpos"			"4"
		"wide"			"159"
		"tall"			"56"
		"visible"		"0"
		"enabled"		"1"
		"textAlignment"	"center"	
		"labelText"		"%Ammo%"
		"autoResize"	"1"
		"pinCorner"		"2"
		
	}						
	"AmmoInReserve"
	{
		"ControlName"	"CExLabel"
		"fieldName"		"AmmoInReserve"
		"font"			"Heavy18"
		"fgcolor"		"TanLight"
		"xpos"			"c75"
		"xpos_minmode"	"65"
		"ypos"			"335"
		"zpos"			"7"
		"wide"			"159"
		"tall"			"57"
		"visible"		"0"
		"enabled"		"1"
		"autoResize"	"1"
		"pinCorner"		"2"
		"textAlignment"	"center"		
		"labelText"		"%AmmoInReserve%"
	}		
	"AmmoInReserveShadow"
	{
		"ControlName"	"CExLabel"
		"fieldName"		"AmmoInReserveShadow"
		"font"			"Heavy18"
		"fgcolor"		"HudShadow"
		"xpos"			"c76"
		"xpos_minmode"	"66"
		"ypos"			"336"
		"ypos_lodef"	"11"
		"zpos"			"7"
		"wide"			"159"
		"tall"			"57"
		"tall_lodef"	"30"
		"visible"		"0"
		"enabled"		"1"
		"textAlignment"	"center"		
		"labelText"		"%AmmoInReserve%"
		"autoResize"	"1"
		"pinCorner"		"2"
	}									
	"AmmoNoClip"
	{
		"ControlName"	"CExLabel"
		"fieldName"		"AmmoNoClip"
		"font"			"Heavy48"
		"fgcolor"		"Ammo"
		"xpos"			"c38"
		"ypos"			"325"
		"zpos"			"5"
		"wide"			"159"
		"wide_lodef"	"83"
		"tall"			"57"
		"tall_minmode"	"36"
		"tall_lodef"	"45"
		"visible"		"0"
		"enabled"		"1"
		"textAlignment"	"center"		
		"labelText"		"%Ammo%"
		"autoResize"	"1"
		"pinCorner"		"2"
		
	}	
	"AmmoNoClipShadow"
	{
		"ControlName"	"CExLabel"
		"fieldName"		"AmmoNoClipShadow"
		"font"			"Heavy48"
		"fgcolor"		"HudShadow"
		"xpos"			"c39"
		"xpos_hidef"	"2"
		"xpos_lodef"	"2"
		"ypos"			"327"
		"ypos_hidef"	"4"
		"ypos_lodef"	"4"
		"zpos"			"4"
		"wide"			"159"
		"wide_lodef"	"83"
		"tall"			"56"
		"tall_minmode"	"36"
		"tall_lodef"	"45"
		"visible"		"0"
		"enabled"		"1"
		"textAlignment"	"center"		
		"labelText"		"%Ammo%"
		"autoResize"	"1"
		"pinCorner"		"2"
		
	}									
}
