"Resource/UI/HudDemomanCharge.res"
{	
	"ChargeMeter"
	{	
		"ControlName"	"ContinuousProgressBar"
		"fieldName"		"ChargeMeter"
		"font"			"Default"
		"xpos"			"c-64"
		"xpos_minmode"	"0"
		"ypos"			"350"
		"zpos"			"2"
		"wide"			"118"
		"tall"			"4"				
		"autoResize"	"0"
		"pinCorner"		"0"
		"visible"		"1"
		"enabled"		"1"
		"textAlignment"	"Left"
		"dulltext"		"0"
		"brighttext"	"0"
		"bgcolor_override" "HudBG"
		"fgcolor_override" "BuildingUber"
	}					
}
