"Resource/UI/HudPlayerHealth.res"
{	
	// player health data
	"HealthBG"	
	{
		"ControlName"	"CExImageButton"
		"fieldName"		"HealthBG"
		"xpos"		"54"
		"ypos"		"134"
		"zpos"		"1"
		"wide"		"116"
		"tall"		"45"
		"autoResize"	"0"
		"pinCorner"	"0"
		"visible"		"1"
		"enabled"		"1"
		"defaultBgColor_Override"		"HudBGStatus"
		"PaintBackgroundType""0"
        "textinsety" "99"
    }
	"PlayerStatusHealthValueShadow"
	{
		"ControlName"	 "CExLabel"	
		"fieldName"	 "PlayerStatusHealthValueShadow"	
		"xpos"	 "10"	
		"ypos"	 "131"	
		"zpos"	 "4"	
		"wide"	 "159"	
		"tall"	 "56"	
		"visible"	 "1"	
		"enabled"	 "1"	
		"labelText"	 "%Health%"	
		"textAlignment"	 "east"	
		"font"	 "Heavy48"	
		"fgcolor"	 "HudShadow"
	}
	"HudPlayerHealth"
	{
		"ControlName"	"EditablePanel"
		"fieldName"		"HudPlayerHealth"
		"xpos"			"c-264"		[$WIN32]
		"xpos_minmode"	"-5"		[$WIN32]
		"ypos"			"r281"	[$WIN32]
		"ypos_minmode"	"r88"	[$WIN32]
		"xpos"			"32"	[$X360]
		"ypos"			"r144"	[$X360]
		"zpos"			"2"
		"wide"			"310"
		"tall"			"222"
		"visible"		"1"
		"enabled"		"1"	
		"HealthBonusPosAdj"	"35"
		"HealthDeathWarning"	"0.49"
		"HealthDeathWarningColor"	"Red"
	}
	"xHairNormal"
	{
		"controlName"	"CExLabel"
		"fieldName"	 	"xHairNormal"
		"visible"		"0"
		"enabled"		"1"
		"zpos"			"1"
		"xpos"			"252"
		"ypos"			"20"
		"wide"			"24"
		"tall"			"26"
		"font"			"xHairNormal"
		"labelText"		"+"
		"fgcolor"		"White"
		"textAlignment"	"center"
	}
	"xHairThin"
	{
		"controlName"	"CExLabel"
		"fieldName"	 	"xHairThin"
		"visible"		"0"
		"enabled"		"1"
		"zpos"			"1"
		"xpos"			"252"
		"ypos"			"21"
		"wide"			"25"
		"tall"			"26"
		"font"			"xHairThin"
		"labelText"		"+"
		"fgcolor"		"Garm3nxHair"
		"textAlignment"	"center"
	}
	"xHairThinOutline"
	{
		"controlName"	"CExLabel"
		"fieldName"	 	"xHairThinOutline"
		"visible"		"0"
		"enabled"		"1"
		"zpos"			"1"
		"xpos"			"252"
		"ypos"			"21"
		"wide"			"25"
		"tall"			"27"
		"font"			"xHairThinOutline"
		"labelText"		"+"
		"fgcolor"		"Garm3nxHair"
		"textAlignment"	"center"
	}
	"xHairRequest"
	{
		"controlName"	"CExLabel"
		"fieldName"	 	"xHairRequest"
		"visible"		"0"
		"enabled"		"1"
		"zpos"			"1"
		"xpos"			"251"
		"ypos"			"23"
		"wide"			"27"
		"tall"			"27"
		"font"			"xHairRequest"
		"labelText"		"+"
		"fgcolor"		"Garm3nxHair"
		"textAlignment"	"center"
	}
	"xHairCircle"
	{
		"controlName"	"CExLabel"
		"fieldName"	 	"xHairCircle"
		"visible"		"0"
		"enabled"		"1"
		"zpos"			"2"
		"xpos"			"247"
		"ypos"			"20"
		"wide"			"34"
		"tall"			"33"
		"font"			"xHairCircle"
		"labelText"		"i"	
		"fgcolor"		"Garm3nxHair"
		"textAlignment"	"center"
	}
	"xHairDotOutline"
	{
		"controlName"	"CExLabel"
		"fieldName"	 	"xHairDotOutline"
		"visible"		"0"
		"enabled"		"1"
		"zpos"			"1"
		"xpos"			"251"
		"ypos"			"24"
		"wide"			"27"
		"tall"			"25"
		"font"			"xHairDotOutline"
		"labelText"		"+"
		"fgcolor"		"Garm3nxHair"
		"textAlignment"	"center"
}
	"YAHUDCrossBackground"	
		{
		"ControlName"	"ImagePanel"
		"fieldName"		"CrossBG"
		"xpos"		"0"
		"ypos"		"131"
		"zpos"		"1"
		"wide"		"60"
		"tall"		"55"
		"autoResize"	"0"
		"pinCorner"	"0"
		"visible"		"0"
		"enabled"		"1"
		"fillcolor"		"HudBG"
		"PaintBackgroundType""0"
	}
	
	"PlayerStatusHealthImage"
	{
		"ControlName"	"ImagePanel"
		"fieldName"		"PlayerStatusHealthImage"
		"xpos"			"35"
		"xpos_minmode"	"60"
		"ypos"			"138"
		"zpos"			"4"
		"wide"			"42"
		"tall"			"42"
		"visible"		"0"
		"enabled"		"0"
		"scaleImage"	"0"	
	}		
	"PlayerStatusHealthImageBG"
	{
		"ControlName"	"ImagePanel"
		"fieldName"		"PlayerStatusHealthImageBG"
		"xpos"			"15"
		"xpos_minmode"	"58"
		"ypos"			"1360"
		"zpos"			"3"
		"wide"			"46"
		"tall"			"46"
		"visible"		"0"
		"enabled"		"0"
		"image"			"../hud/health_bg"
		"scaleImage"	"1"	
	}	
	"PlayerStatusHealthBonusImage"
	{
		"ControlName"	"ImagePanel"
		"fieldName"		"PlayerStatusHealthBonusImage"
		"xpos"			"47"	[$WIN32]
		"xpos_minmode"	"65"	[$WIN32]
		"xpos"			"83"	[$X360]
		"ypos"			"126"	[$WIN32]
		"ypos_minmode"	"40"	[$WIN32]
		"ypos"			"43"	[$X360]
		"zpos"			"4"
		"wide"			"0"	[$WIN32]
		"wide_minmode"	"40"	[$WIN32]
		"wide"			"35"	[$X360]
		"tall"			"0"	[$WIN32]
		"tall_minmode"	"40"	[$WIN32]
		"tall"			"35"	[$X360]
		"visible"		"0"
		"enabled"		"0"
		"image"			"../hud/health_over_bg"
		"scaleImage"	"1"	
	}
	"PlayerStatusHealthValue"
	{
		"ControlName"	"CExLabel"
		"fieldName"		"PlayerStatusHealthValue"
		"xpos"			"9"
		"xpos_minmode"	"61"
		"ypos"			"129"	[$WIN32]
		"ypos"			"55"	[$X360]
		"zpos"			"5"
		"wide"			"159"
		"tall"			"57"
		"visible"		"1"
		"enabled"		"1"
		"labelText"		"%Health%"
		"textAlignment"	"east"	
		"font"			"Heavy48"
		"fgcolor"		"Health"
	}								
	"PlayerStatusBleedImage"
	{
		"ControlName"	"ImagePanel"
		"fieldName"		"PlayerStatusBleedImage"
		"xpos"			"0"
		"xpos_minmode"	"70"
		"ypos"			"152"
		"zpos"			"7"
		"wide"			"16"
		"tall"			"16"
		"visible"		"1"
		"enabled"		"1"
		"scaleImage"	"1"	
		"image"			"../vgui/bleed_drop"
		"fgcolor"		"TanDark"
	}
	"PlayerStatusHookBleedImage"
	{
		"ControlName"	"ImagePanel"
		"fieldName"		"PlayerStatusHookBleedImage"
		"xpos"			"85"
		"xpos_minmode"	"70"
		"ypos"			"0"
		"zpos"			"8"
		"wide"			"32"
		"tall"			"32"
		"visible"		"1"
		"enabled"		"1"
		"scaleImage"	"1"	
		"image"			"../vgui/bleed_drop_grapple"
		"fgcolor"		"TanDark"
	}
	"PlayerStatusMilkImage"
	{
		"ControlName"	"ImagePanel"
		"fieldName"		"PlayerStatusMilkImage"
		"xpos"			"117"
		"xpos_minmode"	"102"
		"ypos"			"0"
		"zpos"			"7"
		"wide"			"32"
		"tall"			"32"
		"visible"		"1"
		"enabled"		"1"
		"scaleImage"	"1"	
		"image"			"../vgui/bleed_drop"
		"fgcolor"		"TanDark"
	}
	"PlayerStatusMarkedForDeathImage"
	{
		"ControlName"	"ImagePanel"
		"fieldName"		"PlayerStatusMarkedForDeathImage"
		"xpos"			"85"
		"xpos_minmode"	"70"
		"ypos"			"0"
		"zpos"			"7"
		"wide"			"32"
		"tall"			"32"
		"visible"		"1"
		"enabled"		"1"
		"scaleImage"	"1"	
		"image"			"../vgui/marked_for_death"
		"fgcolor"		"TanDark"
	}
	"PlayerStatusMarkedForDeathSilentImage"
	{
		"ControlName"	"ImagePanel"
		"fieldName"		"PlayerStatusMarkedForDeathSilentImage"
		"xpos"			"85"
		"xpos_minmode"	"70"
		"ypos"			"0"
		"zpos"			"7"
		"wide"			"31"
		"tall"			"31"
		"visible"		"1"
		"enabled"		"1"
		"scaleImage"	"1"	
		"image"			"../vgui/marked_for_death"
		"fgcolor"		"TanDark"
	}
	"PlayerStatus_MedicUberBulletResistImage"
	{
		"ControlName"	"ImagePanel"
		"fieldName"		"PlayerStatus_MedicUberBulletResistImage"
		"xpos"			"85"
		"xpos_minmode"	"70"
		"ypos"			"0"
		"zpos"			"7"
		"wide"			"31"
		"tall"			"31"
		"visible"		"1"
		"enabled"		"1"
		"scaleImage"	"1"	
		"image"			"../HUD/defense_buff_bullet_blue"
		"fgcolor"		"TanDark"
	}
	"PlayerStatus_MedicUberBlastResistImage"
	{
		"ControlName"	"ImagePanel"
		"fieldName"		"PlayerStatus_MedicUberBlastResistImage"
		"xpos"			"85"
		"xpos_minmode"	"70"
		"ypos"			"0"
		"zpos"			"7"
		"wide"			"31"
		"tall"			"31"
		"visible"		"1"
		"enabled"		"1"
		"scaleImage"	"1"	
		"image"			"../HUD/defense_buff_explosion_blue"
		"fgcolor"		"TanDark"
	}
	"PlayerStatus_MedicUberFireResistImage"
	{
		"ControlName"	"ImagePanel"
		"fieldName"		"PlayerStatus_MedicUberFireResistImage"
		"xpos"			"85"
		"xpos_minmode"	"70"
		"ypos"			"0"
		"zpos"			"7"
		"wide"			"31"
		"tall"			"31"
		"visible"		"1"
		"enabled"		"1"
		"scaleImage"	"1"	
		"image"			"../HUD/defense_buff_fire_blue"
		"fgcolor"		"TanDark"
	}

	"PlayerStatus_MedicSmallBulletResistImage"
	{
		"ControlName"	"ImagePanel"
		"fieldName"		"PlayerStatus_MedicSmallBulletResistImage"
		"xpos"			"85"
		"xpos_minmode"	"70"
		"ypos"			"0"
		"zpos"			"7"
		"wide"			"31"
		"tall"			"31"
		"visible"		"1"
		"enabled"		"1"
		"scaleImage"	"1"	
		"image"			"../HUD/defense_buff_bullet_blue"
		"fgcolor"		"TanDark"
	}
	"PlayerStatus_MedicSmallBlastResistImage"
	{
		"ControlName"	"ImagePanel"
		"fieldName"		"PlayerStatus_MedicSmallBlastResistImage"
		"xpos"			"85"
		"xpos_minmode"	"70"
		"ypos"			"0"
		"zpos"			"7"
		"wide"			"31"
		"tall"			"31"
		"visible"		"1"
		"enabled"		"1"
		"scaleImage"	"1"	
		"image"			"../HUD/defense_buff_explosion_blue"
		"fgcolor"		"TanDark"
	}
	"PlayerStatus_MedicSmallFireResistImage"
	{
		"ControlName"	"ImagePanel"
		"fieldName"		"PlayerStatus_MedicSmallFireResistImage"
		"xpos"			"85"
		"xpos_minmode"	"70"
		"ypos"			"0"
		"zpos"			"7"
		"wide"			"31"
		"tall"			"31"
		"visible"		"1"
		"enabled"		"1"
		"scaleImage"	"1"	
		"image"			"../HUD/defense_buff_fire_blue"
		"fgcolor"		"TanDark"
	}
	

	"PlayerStatus_WheelOfDoom"
	{
		"ControlName"	"ImagePanel"
		"fieldName"		"PlayerStatus_WheelOfDoom"
		"xpos"			"130"
		"xpos_minmode"	"145"
		"ypos"			"38"
		"ypos_minmode"	"55"
		"zpos"			"7"
		"wide"			"32"
		"tall"			"32"
		"visible"		"1"
		"enabled"		"1"
		"scaleImage"	"1"	
		"image"			"../signs/death_wheel_whammy"
		"fgcolor"		"TanDark"
	}

	"PlayerStatus_SoldierOffenseBuff"
	{
		"ControlName"	"ImagePanel"
		"fieldName"		"PlayerStatus_SoldierOffenseBuff"
		"xpos"			"85"
		"xpos_minmode"	"70"
		"ypos"			"0"
		"zpos"			"7"
		"wide"			"31"
		"tall"			"31"
		"visible"		"1"
		"enabled"		"1"
		"scaleImage"	"1"	
		"image"			"../HUD/defense_buff_bullet_blue"
		"fgcolor"		"TanDark"
	}

	"PlayerStatus_SoldierDefenseBuff"
	{
		"ControlName"	"ImagePanel"
		"fieldName"		"PlayerStatus_SoldierDefenseBuff"
		"xpos"			"85"
		"xpos_minmode"	"70"
		"ypos"			"0"
		"zpos"			"7"
		"wide"			"31"
		"tall"			"31"
		"visible"		"1"
		"enabled"		"1"
		"scaleImage"	"1"	
		"image"			"../HUD/defense_buff_bullet_blue"
		"fgcolor"		"TanDark"
	}

	"PlayerStatus_SoldierHealOnHitBuff"
	{
		"ControlName"	"ImagePanel"
		"fieldName"		"PlayerStatus_SoldierHealOnHitBuff"
		"xpos"			"85"
		"xpos_minmode"	"70"
		"ypos"			"0"
		"zpos"			"7"
		"wide"			"31"
		"tall"			"31"
		"visible"		"1"
		"enabled"		"1"
		"scaleImage"	"1"	
		"image"			"../HUD/defense_buff_bullet_blue"
		"fgcolor"		"TanDark"
	}
	"PlayerStatus_SpyMarked"
	{
		"ControlName"	"ImagePanel"
		"fieldName"		"PlayerStatus_SpyMarked"
		"xpos"			"115"
		"xpos_minmode"	"70"
		"ypos"			"0"
		"zpos"			"7"
		"wide"			"31"
		"tall"			"31"
		"visible"		"0"
		"enabled"		"1"
		"scaleImage"	"1"	
		"image"			""
		"fgcolor"		"TanDark"
	}
	"PlayerStatus_Parachute"
	{
		"ControlName"	"ImagePanel"
		"fieldName"		"PlayerStatus_Parachute"
		"xpos"			"85"
		"xpos_minmode"	"70"
		"ypos"			"0"
		"zpos"			"7"
		"wide"			"31"
		"tall"			"31"
		"visible"		"0"
		"enabled"		"1"
		"scaleImage"	"1"	
		"image"			""
		"fgcolor"		"TanDark"
	}
	"PlayerStatus_RuneStrength"
	{
		"ControlName"	"ImagePanel"
		"fieldName"		"PlayerStatus_RuneStrength"
		"xpos"			"85"
		"xpos_minmode"	"70"
		"ypos"			"0"
		"zpos"			"7"
		"wide"			"31"
		"tall"			"31"
		"visible"		"1"
		"enabled"		"1"
		"scaleImage"	"1"	
		"image"			"../Effects/powerup_strength_hud"
		"fgcolor"		"TanDark"
	}
	"PlayerStatus_RuneHaste"
	{
		"ControlName"	"ImagePanel"
		"fieldName"		"PlayerStatus_RuneHaste"
		"xpos"			"85"
		"xpos_minmode"	"70"
		"ypos"			"0"
		"zpos"			"7"
		"wide"			"31"
		"tall"			"31"
		"visible"		"1"
		"enabled"		"1"
		"scaleImage"	"1"	
		"image"			"../Effects/powerup_haste_hud"
		"fgcolor"		"TanDark"
	}
	"PlayerStatus_RuneRegen"
	{
		"ControlName"	"ImagePanel"
		"fieldName"		"PlayerStatus_RuneRegen"
		"xpos"			"85"
		"xpos_minmode"	"70"
		"ypos"			"0"
		"zpos"			"7"
		"wide"			"31"
		"tall"			"31"
		"visible"		"1"
		"enabled"		"1"
		"scaleImage"	"1"	
		"image"			"../Effects/powerup_regen_hud"
		"fgcolor"		"TanDark"
	}
	"PlayerStatus_RuneResist"
	{
		"ControlName"	"ImagePanel"
		"fieldName"		"PlayerStatus_RuneResist"
		"xpos"			"85"
		"xpos_minmode"	"70"
		"ypos"			"0"
		"zpos"			"7"
		"wide"			"31"
		"tall"			"31"
		"visible"		"1"
		"enabled"		"1"
		"scaleImage"	"1"	
		"image"			"../Effects/powerup_resist_hud"
		"fgcolor"		"TanDark"
	}
	"PlayerStatus_RuneVampire"
	{
		"ControlName"	"ImagePanel"
		"fieldName"		"PlayerStatus_RuneVampire"
		"xpos"			"85"
		"xpos_minmode"	"70"
		"ypos"			"0"
		"zpos"			"7"
		"wide"			"31"
		"tall"			"31"
		"visible"		"1"
		"enabled"		"1"
		"scaleImage"	"1"	
		"image"			"../Effects/powerup_vampire_hud"
		"fgcolor"		"TanDark"
	}
	"PlayerStatus_RuneReflect"
	{
		"ControlName"	"ImagePanel"
		"fieldName"		"PlayerStatus_RuneReflect"
		"xpos"			"85"
		"xpos_minmode"	"70"
		"ypos"			"0"
		"zpos"			"7"
		"wide"			"31"
		"tall"			"31"
		"visible"		"1"
		"enabled"		"1"
		"scaleImage"	"1"	
		"image"			"../Effects/powerup_reflect_hud"
		"fgcolor"		"TanDark"
	}
	"PlayerStatus_RunePrecision"
	{
		"ControlName"	"ImagePanel"
		"fieldName"		"PlayerStatus_RunePrecision"
		"xpos"			"85"
		"xpos_minmode"	"70"
		"ypos"			"0"
		"zpos"			"7"
		"wide"			"31"
		"tall"			"31"
		"visible"		"1"
		"enabled"		"1"
		"scaleImage"	"1"	
		"image"			"../Effects/powerup_precision_hud"
		"fgcolor"		"TanDark"
	}
	"PlayerStatus_RuneAgility"
	{
		"ControlName"	"ImagePanel"
		"fieldName"		"PlayerStatus_RuneAgility"
		"xpos"			"85"
		"xpos_minmode"	"70"
		"ypos"			"0"
		"zpos"			"7"
		"wide"			"31"
		"tall"			"31"
		"visible"		"1"
		"enabled"		"1"
		"scaleImage"	"1"	
		"image"			"../Effects/powerup_agility_hud"
		"fgcolor"		"TanDark"
	}
	"PlayerStatus_RuneKnockout"
	{
		"ControlName"	"ImagePanel"
		"fieldName"		"PlayerStatus_RuneKnockout"
		"xpos"			"85"
		"xpos_minmode"	"70"
		"ypos"			"0"
		"zpos"			"7"
		"wide"			"31"
		"tall"			"31"
		"visible"		"1"
		"enabled"		"1"
		"scaleImage"	"1"	
		"image"			"../Effects/powerup_knockout_hud"
		"fgcolor"		"TanDark"
	}
	"PlayerStatus_RuneKing"
	{
		"ControlName"	"ImagePanel"
		"fieldName"		"PlayerStatus_RuneKing"
		"xpos"			"85"
		"xpos_minmode"	"70"
		"ypos"			"0"
		"zpos"			"7"
		"wide"			"31"
		"tall"			"31"
		"visible"		"1"
		"enabled"		"1"
		"scaleImage"	"1"	
		"image"			"../Effects/powerup_king_hud"
		"fgcolor"		"TanDark"
	}
	"PlayerStatus_RunePlague"
	{
		"ControlName"	"ImagePanel"
		"fieldName"		"PlayerStatus_RunePlague"
		"xpos"			"85"
		"xpos_minmode"	"70"
		"ypos"			"0"
		"zpos"			"7"
		"wide"			"31"
		"tall"			"31"
		"visible"		"1"
		"enabled"		"1"
		"scaleImage"	"1"	
		"image"			"../Effects/powerup_plague_hud"
		"fgcolor"		"TanDark"
	}
	"PlayerStatus_RuneSupernova"
	{
		"ControlName"	"ImagePanel"
		"fieldName"		"PlayerStatus_RuneSupernova"
		"xpos"			"85"
		"xpos_minmode"	"70"
		"ypos"			"0"
		"zpos"			"7"
		"wide"			"31"
		"tall"			"31"
		"visible"		"1"
		"enabled"		"1"
		"scaleImage"	"1"	
		"image"			"../Effects/powerup_supernova_hud"
		"fgcolor"		"TanDark"
	}
}
