"Resource/UI/SpectatorGUIHealth.res"
{
    "TargetHPBG"	
	{
		"ControlName"	"CExImageButton"
		"fieldName"		"TargetHPBG"
		"xpos"		"0"
		"ypos"		"1"
		"zpos"		"4"
		"wide"		"50"
		"tall"		"21"
		"autoResize"	"0"
		"pinCorner"	"0"
		"visible"		"1"
		"enabled"		"1"
		"defaultBgColor_Override"		"HudBGStatus"
		"PaintBackgroundType""0"
        "textinsety" "99"
	}
	"PlayerStatusHealthImage"
	{
		"ControlName"	"ImagePanel"
		"fieldName"		"PlayerStatusHealthImage"
		"xpos"			"4"
		"xpos_minmode"	"7"
		"ypos"			"2"
		"ypos_minmode"	"7"
		"zpos"			"4"
		"wide"			"24"
		"wide_minmode"	"14"
		"tall"			"24"
		"tall_minmode"	"14"
		"visible"		"0"
		"enabled"		"0"
		"textAlignment"	"center"
		"scaleImage"	"1"	
	}		
	"PlayerStatusHealthImageBG"
	{
		"ControlName"	"ImagePanel"
		"fieldName"		"PlayerStatusHealthImageBG"
		"xpos"			"1500"
		"xpos_minmode"	"6"
		"ypos"			"2"
		"ypos_minmode"	"6"
		"zpos"			"3"
		"wide"			"0"
		"wide_minmode"	"16"
		"tall"			"27"
		"tall_minmode"	"16"
		"visible"		"0"
		"enabled"		"0"
		"image"			"../hud/health_bg"
		"textAlignment"	"center"
		"scaleImage"	"1"	
	}	
	"BuildingStatusHealthImageBG"
	{
		"ControlName"	"ImagePanel"
		"fieldName"		"BuildingStatusHealthImageBG"
		"xpos"			"0"
		"xpos_minmode"	"2"
		"ypos"			"0"
		"ypos_minmode"	"3"
		"zpos"			"2"
		"wide"			"0"
		"wide_minmode"	"22"
		"tall"			"0"
		"tall_minmode"	"22"
		"visible"		"0"
		"enabled"		"0"
		"textAlignment"	"center"

		"scaleImage"	"1"	
	}	
	"PlayerStatusHealthBonusImage"
	{
		"ControlName"	"ImagePanel"
		"fieldName"		"PlayerStatusHealthBonusImage"
		"xpos"			"1500"
		"xpos_minmode"	"8"
		"ypos"			"9"
		"ypos_minmode"	"8"
		"zpos"			"3"
		"wide"			"18"
		"wide_minmode"	"12"
		"tall"			"18"
		"tall_minmode"	"12"
		"visible"		"0"
		"enabled"		"1"
		"image"			"../hud/health_over_bg"
		"textAlignment"	"center"
		"scaleImage"	"1"	
	}
	"PlayerStatusHealthValue"
	{
		"ControlName"	"CExLabel"
		"fieldName"		"PlayerStatusHealthValue"
		"xpos"			"-5"
		"xpos_minmode"	"7"
		"ypos"			"10"
		"ypos_minmode"	"7"
		"zpos"			"5"
		"wide"			"46"
		"wide_minmode"	"14"
		"tall"			"28"
		"tall_minmode"	"14"
		"visible"		"1"
		"enabled"		"1"
		"labelText"		"%Health%"
		"textAlignment"	"center"	
		"font"			"Heavy20"
		"fgcolor"		"White"
	}
	"PlayerStatusHealthValueSpecShadow"
	{
		"ControlName"	"CExLabel"
		"fieldName"		"PlayerStatusHealthValueSpecShadow"
		"xpos"			"-4"
		"ypos"			"12"
		"zpos"			"4"
		"wide"			"46"
		"tall"			"27"
		"visible"		"1"
		"enabled"		"1"
		"labelText"		"%Health%"
		"textAlignment"	"center"	
		"font"			"Heavy20"
		"fgcolor"		"HudShadow"
	}
	"PlayerStatusPlayerLevel"
	{
		"ControlName"	"CExLabel"
		"fieldName"		"PlayerStatusPlayerLevel"
		"xpos"			"8"
		"xpos_minmode"	"0"
		"ypos"			"9"
		"zpos"			"5"
		"wide"			"16"
		"tall"			"12"
		"visible"		"0"
		"enabled"		"1"
		"textAlignment"	"center"	
		"font"			"ScoreboardVerySmall"
		"fgcolor"		"TFOrange"
	}							
}
