"Resource/UI/TargetID.res"
{
	"TargetBG"
    {
        "ControlName"         "CExImageButton"
        "fieldName"           "TargetBG"
        "xpos"                "0"
        "ypos"                "8"
        "zpos"                "-4"
        "wide"	          	  "640"
        "tall"		          "20"
        "autoResize"	      "0"
        "pinCorner"	          "0"
        "visible"		      "0"
        "enabled"		      "1"
        "defaultBgColor_Override"		"White"	// 210 200 200 255
        "PaintBackgroundType""0"
        "textinsety" "99"
	}
	"TargetIDBG"
	{
		"ControlName"		"CTFImagePanel"
		"fieldName"		"TargetIDBG"
		"xpos"			"0"
		"ypos"			"60"
		"zpos"			"-1"
		"wide"			"64"
		"tall"	 		"35"
		"autoResize"		"0"
		"pinCorner"		"0"
		"visible"		"1"
		"enabled"		"1"
		"image"			"../hud/color_panel_brown"
		"scaleImage"		"1"
		"teambg_1"		"../hud/color_panel_brown"
		"teambg_2"		"../hud/objectives_timepanel_red_bg"
		"teambg_2_lodef"	"../hud/objectives_timepanel_red_bg"
		"teambg_3"		"../hud/objectives_timepanel_blue_bg"
		"teambg_3_lodef"	"../hud/objectives_timepanel_blue_bg"
		"src_corner_height"		"23"				// pixels inside the image
		"src_corner_width"		"23"
			
		"draw_corner_width"		"0"				// screen size of the corners ( and sides ), proportional
		"draw_corner_height" 	"0"	
	}
	"TargetIDBG_Spec_Blue"
	{
		"ControlName"		"ScalableImagePanel"
		"fieldName"		"TargetIDBG_Spec_Blue"
		"xpos"			"0"
		"ypos"			"28"
		"zpos"			"-1"
		"wide"			"640"
		"tall"	 		"1"
		"autoResize"		"0"
		"pinCorner"		"0"
		"visible"		"0"
		"enabled"		"1"
		"image"			"../hud/objectives_timepanel_blue_bg"
		"image_lodef"	"../hud/objectives_timepanel_blue_bg"
		
		"src_corner_height"		"3"				// pixels inside the image
		"src_corner_width"		"23"
			
		"draw_corner_width"		"0"				// screen size of the corners ( and sides ), proportional
		"draw_corner_height" 	"0"
	}
	"TargetIDBG_Spec_Red"
	{
		"ControlName"		"ScalableImagePanel"
		"fieldName"		"TargetIDBG_Spec_Red"
		"xpos"			"0"
		"ypos"			"28"
		"zpos"			"-1"
		"wide"			"640"
		"tall"	 		"1"
		"autoResize"		"0"
		"pinCorner"		"0"
		"visible"		"0"
		"enabled"		"1"
		"image"			"../hud/objectives_timepanel_red_bg"
		"image_lodef"	"../hud/objectives_timepanel_red_bg"
		
		"src_corner_height"		"3"				// pixels inside the image
		"src_corner_width"		"23"
			
		"draw_corner_width"		"0"				// screen size of the corners ( and sides ), proportional
		"draw_corner_height" 	"0"
	}
	
	"TargetNameLabel"
	{	
		"ControlName"		"Label"
		"fieldName"		"TargetNameLabel"
		"font"			"HudFontSmall"
		"font_minmode"	"Bold12"
		"xpos"			"43"
		"xpos_minmode"	"30"
		"ypos"			"7"
		"ypos_minmode"	"5"
		"zpos"			"2"
		"wide"			"640"
		"tall"			"24"
		"autoResize"		"0"
		"pinCorner"		"0"
		"visible"		"1"
		"enabled"		"1"
		"labelText"		"%targetname%"
		"textAlignment"		"west"
		"dulltext"		"0"
		"brighttext"		"0"
	}
	"TargetDataLabel"
	{	
		"ControlName"		"Label"
		"fieldName"		"TargetDataLabel"
		"font"			"Regular7Shadow"
		"font_minmode"	"DefaultVerySmall"
		"xpos"			"5"
		"xpos_minmode"	"30"
		"ypos"			"25"	[$WIN32]
		"ypos_minmode"	"12"	[$WIN32]
		"ypos"			"22"	[$X360]
		"ypos_hidef"		"25"	[$X360]
		"zpos"			"2"
		"wide"			"270"
		"tall"			"18"
		"autoResize"		"0"
		"pinCorner"		"0"
		"visible"		"0"
		"enabled"		"1"
		"labelText"		"%targetdata%"
		"fgcolor"		"White"
		"textAlignment"		"Left"
		"dulltext"		"0"
		"brighttext"		"0"
	}
	"SpectatorGUIHealth"
	{
		"ControlName"		"EditablePanel"
		"fieldName"		"SpectatorGUIHealth"
		"xpos"			"0"
		"xpos_minmode"	"0"
		"ypos"			"7"
		"ypos_minmode"	"0"
		"wide"			"37"
		"tall"			"37"
		"visible"		"1"
		"enabled"		"1"	
		"HealthBonusPosAdj"	"10"
		"HealthDeathWarning"	"0.49"
		"TFFont"		"HudFontSmall"
		"HealthDeathWarningColor"	"HUDDeathWarning"
		"TextColor"		"HudOffWhite"
	}	
	
	"AmmoIcon"
	{
		"ControlName"	"ImagePanel"
		"fieldName"		"AmmoIcon"
		"xpos"			"2"
		"xpos_minmode"	"30"
		"ypos"			"29"
		"ypos_minmode"	"19"
		"zpos"			"12"
		"wide"			"8"
		"tall"			"8"
		"visible"		"1"
		"enabled"		"1"
		"image"			"../hud/leaderboard_class_heavy"
		"scaleImage"	"1"
	}
	
	"KillStreakIcon"
	{
		"ControlName"	"ImagePanel"
		"fieldName"		"KillStreakIcon"
		"xpos"			"2"
		"xpos_minmode"	"30"
		"ypos"			"29"
		"ypos_minmode"	"19"
		"zpos"			"12"
		"wide"			"8"
		"tall"			"8"
		"visible"		"0"
		"enabled"		"1"
		"image"			"../hud/leaderboard_streak"
		"scaleImage"	"1"
	}
	
	"MoveableSubPanel"
	{
		"ControlName"		"EditablePanel"
		"fieldName"		"MoveableSubPanel"
		"xpos"			"0"
		"ypos"			"-3"
		"zpos"			"11"
		"wide"			"32"
		"tall"			"36"
		"visible"		"1"
		"enabled"		"1"	
		
		"MoveableIconBG"
		{
			"ControlName"	"CIconPanel"
			"fieldName"		"MoveableIconBG"
			"xpos"			"0"
			"ypos"			"0"
			"zpos"			"0"
			"wide"			"10"
			"tall"			"36"
			"visible"		"0"
			"enabled"		"0"
			"icon"			"obj_status_alert_background_tall_nocolor"
			"iconColor"		"HudBlack"
			"scaleImage"	"1"
		}
		
		"MoveableIcon"
		{
			"ControlName"	"CIconPanel"
			"fieldName"		"MoveableIcon"
			"xpos"			"5"
			"ypos"			"7"
			"zpos"			"11"
			"wide"			"14"
			"tall"			"14"
			"visible"		"0"
			"enabled"		"0"
			"icon"			"obj_status_sentrygun_1"
			"drawcolor"		"ProgressOffWhite"
			"scaleImage"	"1"
		}
		"MoveableSymbolIcon"
		{
			"ControlName"	"ImagePanel"
			"fieldName"		"MoveableSymbolIcon"
			"xpos"			"16"
			"ypos"			"-2"
			"zpos"			"12"
			"wide"			"16"
			"tall"			"8"
			"visible"		"0"
			"enabled"		"0"
			"image"			"../hud/eng_sel_item_movable"
			"drawcolor"		"ProgressOffWhite"
			"scaleImage"	"1"
		}

		"MoveableKeyLabel"
		{	
			"ControlName"		"Label"
			"fieldName"		"MoveableKeyLabel"
			"font"			"Medium10"
			"font_minmode"	"DefaultVerySmall"
			"fgcolor"		"White"
			"TextColor"		"White"
			"xpos"			"1"
			"ypos"			"13"
			"zpos"			"1"
			"wide"			"640"
			"tall"			"26"
			"autoResize"		"0"
			"pinCorner"		"0"
			"visible"		"1"
			"enabled"		"1"
			"labelText"		"%movekey%"
			"textAlignment"		"North"
			"dulltext"		"0"
			"brighttext"		"0"
		}	
	}
	"AvatarImage"
	{
		"ControlName"	"CAvatarImagePanel"
		"fieldName"		"AvatarImage"
		"xpos"			"6"
		"xpos_minmode"	"6"
		"ypos"			"6"	[$WIN32]
		"ypos"			"0"	[$X360]
		"zpos"			"99"
		"wide"			"11"
		"tall"			"11"
		"visible"		"1"
		"enabled"		"1"
		"image"			""
		"scaleImage"	"1"	
		"color_outline"	"52 48 45 255"
	}	
}
